CMSC320 Final Project
…
1. Data Curation, Parsing, and Management

Loading the Dataset

The first part of the pipeline involves obtaining a dataset and loading it into the R environment.

Here we load a dataset on suicide rates from the csv file downloaded from the Kaggle database.

suicide_df <- read_csv("suicide_rates.csv")

suicide_df

## # A tibble: 27,820 x 12
##    country  year sex   age   suicides_no population `suicides/100k ~
##    <chr>   <dbl> <chr> <chr>       <dbl>      <dbl>            <dbl>
##  1 Albania  1987 male  15-2~          21     312900             6.71
##  2 Albania  1987 male  35-5~          16     308000             5.19
##  3 Albania  1987 fema~ 15-2~          14     289700             4.83
##  4 Albania  1987 male  75+ ~           1      21800             4.59
##  5 Albania  1987 male  25-3~           9     274300             3.28
##  6 Albania  1987 fema~ 75+ ~           1      35600             2.81
##  7 Albania  1987 fema~ 35-5~           6     278800             2.15
##  8 Albania  1987 fema~ 25-3~           4     257200             1.56
##  9 Albania  1987 male  55-7~           1     137500             0.73
## 10 Albania  1987 fema~ 5-14~           0     311000             0   
## # ... with 27,810 more rows, and 5 more variables: `country-year` <chr>,
## #   `HDI for year` <dbl>, `gdp_for_year ($)` <dbl>, `gdp_per_capita
## #   ($)` <dbl>, generation <chr>
…
Tidying the Dataset

Next, we will clean up the dataset but removing any unnecessary columns and converting the type of any attributes into a more usable type.

Upon closer inspective of some columns, we notice that country-year is simply just the concatentation of country and year, so it does not offer any additional information. For our analysis, we are not interested in the absolute number of suicides, only the suicide rate (suicides/100k pop) but we should still include suicides_no and population in case we would like to compute the average suicide rate across all age groups. In addition, HDI (Human Development Index) data is not available for all years of all countries. It is only available for a subset of countries and only at 5 year intervals so will not use this attribute either. Furthermore, the generation attribute is simply just a one-to-one mapping from the age range attribute so it also offers no additional information. The following code segment selects only the attributes that we are interested in and also renames the columns with more intuitive names.

suicide_df <- suicide_df %>%
  select(country, year, sex, age, suicides_no, population, `suicides/100k pop`, `gdp_for_year ($)`, `gdp_per_capita ($)`) %>%
  rename(suicide_rate = `suicides/100k pop`) %>%
  rename(gdp = `gdp_for_year ($)`) %>%
  rename(gdp_per_capita = `gdp_per_capita ($)`)

suicide_df

## # A tibble: 27,820 x 9
##    country  year sex   age   suicides_no population suicide_rate    gdp
##    <chr>   <dbl> <chr> <chr>       <dbl>      <dbl>        <dbl>  <dbl>
##  1 Albania  1987 male  15-2~          21     312900         6.71 2.16e9
##  2 Albania  1987 male  35-5~          16     308000         5.19 2.16e9
##  3 Albania  1987 fema~ 15-2~          14     289700         4.83 2.16e9
##  4 Albania  1987 male  75+ ~           1      21800         4.59 2.16e9
##  5 Albania  1987 male  25-3~           9     274300         3.28 2.16e9
##  6 Albania  1987 fema~ 75+ ~           1      35600         2.81 2.16e9
##  7 Albania  1987 fema~ 35-5~           6     278800         2.15 2.16e9
##  8 Albania  1987 fema~ 25-3~           4     257200         1.56 2.16e9
##  9 Albania  1987 male  55-7~           1     137500         0.73 2.16e9
## 10 Albania  1987 fema~ 5-14~           0     311000         0    2.16e9
## # ... with 27,810 more rows, and 1 more variable: gdp_per_capita <dbl>
…
suicide_df_average <- suicide_df %>%
  group_by(country, year) %>%
  summarize(population=sum(population), suicides_no=sum(suicides_no), gdp_per_capita=mean(gdp_per_capita)) %>%
  mutate(suicide_rate=suicides_no/population*100000)

suicide_df_average

## # A tibble: 2,321 x 6
## # Groups:   country [101]
##    country  year population suicides_no gdp_per_capita suicide_rate
##    <chr>   <dbl>      <dbl>       <dbl>          <dbl>        <dbl>
##  1 Albania  1987    2709600          73            796         2.69
##  2 Albania  1988    2764300          63            769         2.28
##  3 Albania  1989    2803100          68            833         2.43
##  4 Albania  1992    2822500          47            251         1.67
##  5 Albania  1993    2807300          73            437         2.60
##  6 Albania  1994    2849300          50            697         1.75
##  7 Albania  1995    2903400          88            835         3.03
##  8 Albania  1996    2940200          89           1127         3.03
##  9 Albania  1997    2977300         170            793         5.71
## 10 Albania  1998    3012700         154            899         5.11
## # ... with 2,311 more rows
…
Since there seems to be the highest concentration data near the lower GDP per Capita values, we may be able to obtain a better visualize by taking the log of GDP per Capita. This will spread out the data near lower GDP per Capita values and compress the data near the higher GDP per Capita values. In this next pipeline, we will use the mutate() command to add another column to the table.

suicide_df_average <- suicide_df_average %>%
  mutate(log_gdp_per_capita = log(gdp_per_capita))

suicide_df_average

## # A tibble: 2,321 x 7
## # Groups:   country [101]
##    country  year population suicides_no gdp_per_capita suicide_rate
##    <chr>   <dbl>      <dbl>       <dbl>          <dbl>        <dbl>
##  1 Albania  1987    2709600          73            796         2.69
##  2 Albania  1988    2764300          63            769         2.28
##  3 Albania  1989    2803100          68            833         2.43
##  4 Albania  1992    2822500          47            251         1.67
##  5 Albania  1993    2807300          73            437         2.60
##  6 Albania  1994    2849300          50            697         1.75
##  7 Albania  1995    2903400          88            835         3.03
##  8 Albania  1996    2940200          89           1127         3.03
##  9 Albania  1997    2977300         170            793         5.71
## 10 Albania  1998    3012700         154            899         5.11
## # ... with 2,311 more rows, and 1 more variable: log_gdp_per_capita <dbl>
…
suicide_df_converted_age <- suicide_df %>%
  mutate(age = mapply(convert_age, suicide_df$age))

suicide_df_converted_age

## # A tibble: 27,820 x 9
##    country  year sex     age suicides_no population suicide_rate    gdp
##    <chr>   <dbl> <chr> <dbl>       <dbl>      <dbl>        <dbl>  <dbl>
##  1 Albania  1987 male   19.5          21     312900         6.71 2.16e9
##  2 Albania  1987 male   87.5          16     308000         5.19 2.16e9
##  3 Albania  1987 fema~  19.5          14     289700         4.83 2.16e9
##  4 Albania  1987 male   87.5           1      21800         4.59 2.16e9
##  5 Albania  1987 male   29.5           9     274300         3.28 2.16e9
##  6 Albania  1987 fema~  87.5           1      35600         2.81 2.16e9
##  7 Albania  1987 fema~  87.5           6     278800         2.15 2.16e9
##  8 Albania  1987 fema~  29.5           4     257200         1.56 2.16e9
##  9 Albania  1987 male   64.5           1     137500         0.73 2.16e9
## 10 Albania  1987 fema~   9.5           0     311000         0    2.16e9
## # ... with 27,810 more rows, and 1 more variable: gdp_per_capita <dbl>
…
